…
How to link sysrev article ids to pubmed ids?

Articles imported to Sysrev from pubmed track pmids in `external_id`:

library(rsr)

aop = rbind(
  get_articles(103067) |> mutate(project="jian/aop"),
  get_articles(113583) |> mutate(project="jonas/aop"))

aop |> 
  select(project_id,aid,datasource_name,external_id) |> 
  print(n=2)

## # A tibble: 28,941 × 4
##   project_id      aid datasource_name external_id   
##        <int>    <int> <chr>           <chr>         
## 1     103067 13591692 pubmed          "\"24151358\""
## 2     103067 13591690 pubmed          "\"23236639\""
## # … with 28,939 more rows
…
